[
{"type":"image","lien":"img/table.jpg","x":"10","y":"10" ,"height":"50","width":"50"},
{"type":"image","lien":"img/chaise.jpg","x":"10","y":"50", "height":"50","width":"50"},
{"type":"image","lien":"img/ordinateur.jpg","x":"10","y":"100","height":"50","width":"50"},
{"type":"image","lien":"img/imprimante.jpg","x":"10","y":"150","height":"50","width":"50"},
{"type":"image","lien":"img/agenda.jpg","x":"10","y":"200","height":"50","width":"50"},
{"type":"imageCroix","lien":"img/croix.jpg","x":"10","y":"250","height":"50","width":"50"},
{"type":"imageEtagere","lien":"img/etagere.jpg","x":"10","y":"300","height":"50","width":"50"}

]